…
```r
directors <- directors %>%
  mutate(inpolitics = if_else(stringdist::amatch(first_last, bundestag$first_last, maxDist = 3) != 0,
                         "yes", 
                         "no")
  )
                         

directors %>%
  arrange(inpolitics)
```

```
## # A tibble: 13,113 x 8
##    company_name  bvd_no  ticker isin  first_name last_name first_last inpolitics
##    <chr>         <chr>   <chr>  <chr> <chr>      <chr>     <chr>      <chr>     
##  1 VOLKSWAGEN AG DE2070… VOW    DE00… Christian  Schmidt   Christian… yes       
##  2 DAIMLER AG    DE7330… DAI    DE00… Oliver     Fischer   Oliver Fi… yes       
##  3 DAIMLER AG    DE7330… DAI    DE00… Michael    Friess    Michael F… yes       
##  4 DAIMLER AG    DE7330… DAI    DE00… Michael    Fuchs     Michael F… yes       
##  5 DAIMLER AG    DE7330… DAI    DE00… Kerstin    Neumann   Kerstin N… yes       
##  6 DAIMLER AG    DE7330… DAI    DE00… Eckhart    von Klae… Eckhart v… yes       
##  7 DAIMLER AG    DE7330… DAI    DE00… Eckhart    von Klae… Eckhart v… yes       
##  8 DAIMLER AG    DE7330… DAI    DE00… Eckard     von Klae… Eckard vo… yes       
##  9 DAIMLER AG    DE7330… DAI    DE00… Andrea     Jung      Andrea Ju… yes       
## 10 DAIMLER AG    DE7330… DAI    DE00… Bernhard   Walter    Bernhard … yes       
## # … with 13,103 more rows
```
…
```r
no_of_pol_con_per_firm <- directors %>%
  group_by(isin) %>%
  distinct(first_last, .keep_all = TRUE) %>%
  summarize(howmany = sum(inpolitics == "yes",
                          na.rm = TRUE)
            )

no_of_pol_con_per_firm %>%
  ungroup() %>%
  arrange(desc(howmany))
```

```
## # A tibble: 110 x 2
##    isin         howmany
##    <chr>          <int>
##  1 DE0007100000      12
##  2 DE000BAY0017       7
##  3 DE000BASF111       4
##  4 DE0005557508       3
##  5 DE0006047004       3
##  6 DE000LED4000       3
##  7 DE0005437305       2
##  8 DE0005439004       2
##  9 DE0005552004       2
## 10 DE0005773303       2
## # … with 100 more rows
```
…
